…
##3. Are there any missing values in the data? If so, which variables contain missing values and how many are missing for each variable?

``` r
#skip this question
```

4. How many countries are represented in the data?

``` r
fisheries_clean %>% 
  distinct(country)
```

```
## # A tibble: 249 × 1
##    country            
##    <fct>              
##  1 Afghanistan        
##  2 Albania            
##  3 Algeria            
##  4 American Samoa     
##  5 Andorra            
##  6 Angola             
##  7 Anguilla           
##  8 Antigua and Barbuda
##  9 Argentina          
## 10 Armenia            
## # ℹ 239 more rows
```
…
7. In 2023, what were the top 10 most caught species? To keep things simple, assume `common_name` is sufficient to identify species. What does `NEI` stand for in some of the common names? How might this be concerning from a fisheries management perspective?

``` r
fisheries_clean %>% 
  filter(period=="2023") %>% 
  group_by(common_name) %>% 
  summarize(sum_catch=sum(catch)) %>%  
  arrange(desc(sum_catch))  
```

```
## # A tibble: 2,870 × 2
##    common_name                    sum_catch
##    <fct>                              <dbl>
##  1 Marine fishes NEI               8553907.
##  2 Freshwater fishes NEI           5880104.
##  3 Alaska pollock(=Walleye poll.)  3543411.
##  4 Skipjack tuna                   2954736.
##  5 Anchoveta(=Peruvian anchovy)    2415709.
##  6 Blue whiting(=Poutassou)        1739484.
##  7 Pacific sardine                 1678237.
##  8 Yellowfin tuna                  1601369.
##  9 Atlantic herring                1432807.
## 10 Scads NEI                       1344190.
## # ℹ 2,860 more rows
```
…
